{
  "project_info": {
    "project_number": "803331593336",
    "firebase_url": "https://fir-services-3c1fd-default-rtdb.firebaseio.com",
    "project_id": "fir-services-3c1fd",
    "storage_bucket": "fir-services-3c1fd.appspot.com"
  },
  "client": [
    {
      "client_info": {
        "mobilesdk_app_id": "1:803331593336:android:f0399b9e7425abcecf898d",
        "android_client_info": {
          "package_name": "com.example.dynamiclinks"
        }
      },
      "oauth_client": [
        {
          "client_id": "803331593336-nrkdkinhovok17o0ljulmuast1qkdpj4.apps.googleusercontent.com",
          "client_type": 3
        }
      ],
      "api_key": [
        {
          "current_key": "AIzaSyBXb5Ue-6VM9I_D7bfoX9PTHNM9zaup6zg"
        }
      ],
      "services": {
        "appinvite_service": {
          "other_platform_oauth_client": [
            {
              "client_id": "803331593336-nrkdkinhovok17o0ljulmuast1qkdpj4.apps.googleusercontent.com",
              "client_type": 3
            }
          ]
        }
      }
    },
    {
      "client_info": {
        "mobilesdk_app_id": "1:803331593336:android:f5b2b006fb81ea57cf898d",
        "android_client_info": {
          "package_name": "com.example.dynamiclinksinkotlin"
        }
      },
      "oauth_client": [
        {
          "client_id": "803331593336-nrkdkinhovok17o0ljulmuast1qkdpj4.apps.googleusercontent.com",
          "client_type": 3
        }
      ],
      "api_key": [
        {
          "current_key": "AIzaSyBXb5Ue-6VM9I_D7bfoX9PTHNM9zaup6zg"
        }
      ],
      "services": {
        "appinvite_service": {
          "other_platform_oauth_client": [
            {
              "client_id": "803331593336-nrkdkinhovok17o0ljulmuast1qkdpj4.apps.googleusercontent.com",
              "client_type": 3
            }
          ]
        }
      }
    },
    {
      "client_info": {
        "mobilesdk_app_id": "1:803331593336:android:d19a48c3b161b95dcf898d",
        "android_client_info": {
          "package_name": "com.example.firebasepushnotifications"
        }
      },
      "oauth_client": [
        {
          "client_id": "803331593336-nrkdkinhovok17o0ljulmuast1qkdpj4.apps.googleusercontent.com",
          "client_type": 3
        }
      ],
      "api_key": [
        {
          "current_key": "AIzaSyBXb5Ue-6VM9I_D7bfoX9PTHNM9zaup6zg"
        }
      ],
      "services": {
        "appinvite_service": {
          "other_platform_oauth_client": [
            {
              "client_id": "803331593336-nrkdkinhovok17o0ljulmuast1qkdpj4.apps.googleusercontent.com",
              "client_type": 3
            }
          ]
        }
      }
    },
    {
      "client_info": {
        "mobilesdk_app_id": "1:803331593336:android:7a0d3b15367b80e2cf898d",
        "android_client_info": {
          "package_name": "com.example.firebaseservices"
        }
      },
      "oauth_client": [
        {
          "client_id": "803331593336-jqj798shdek6if91tsd5pp0pra6avcnc.apps.googleusercontent.com",
          "client_type": 1,
          "android_info": {
            "package_name": "com.example.firebaseservices",
            "certificate_hash": "df22c799582c168f7e820eb4b16aba586fda23e6"
          }
        },
        {
          "client_id": "803331593336-nrkdkinhovok17o0ljulmuast1qkdpj4.apps.googleusercontent.com",
          "client_type": 3
        }
      ],
      "api_key": [
        {
          "current_key": "AIzaSyBXb5Ue-6VM9I_D7bfoX9PTHNM9zaup6zg"
        }
      ],
      "services": {
        "appinvite_service": {
          "other_platform_oauth_client": [
            {
              "client_id": "803331593336-nrkdkinhovok17o0ljulmuast1qkdpj4.apps.googleusercontent.com",
              "client_type": 3
            }
          ]
        }
      }
    }
  ],
  "configuration_version": "1"
}